…
Tidyverse contains a function `read_csv` that allows you to read a csv
file directly into a data frame. You specify the location of the file,
either on your local drive or directly from the Internet!

The example below downloads an overview of gun polls from the [data
analytics site 538](https://fivethirtyeight.com/), and reads it into a
tibble using the read_csv function:

``` r
url <- "https://raw.githubusercontent.com/fivethirtyeight/data/master/poll-quiz-guns/guns-polls.csv"
gunpolls <- read_csv(url)
gunpolls
```

    ## # A tibble: 57 × 9
    ##    Question     Start   End     Pollster Population Support `Republican Support`
    ##    <chr>        <chr>   <chr>   <chr>    <chr>        <dbl>                <dbl>
    ##  1 age-21       2/20/18 2/23/18 CNN/SSRS Registere…      72                   61
    ##  2 age-21       2/27/18 2/28/18 NPR/Ips… Adults          82                   72
    ##  3 age-21       3/1/18  3/4/18  Rasmuss… Adults          67                   59
    ##  4 age-21       2/22/18 2/26/18 Harris … Registere…      84                   77
    ##  5 age-21       3/3/18  3/5/18  Quinnip… Registere…      78                   63
    ##  6 age-21       3/4/18  3/6/18  YouGov   Registere…      72                   65
    ##  7 age-21       3/1/18  3/5/18  Morning… Registere…      76                   72
    ##  8 arm-teachers 2/23/18 2/25/18 YouGov/… Registere…      41                   69
    ##  9 arm-teachers 2/20/18 2/23/18 CBS News Adults          44                   68
    ## 10 arm-teachers 2/27/18 2/28/18 Rasmuss… Adults          43                   71
    ## # ℹ 47 more rows
    ## # ℹ 2 more variables: `Democratic Support` <dbl>, URL <chr>
…
R Tidyverse has a number of functions that can be used for data
cleaning. As a first step, let’s learn how to use `select` and `rename`
to change the *columns* of a data frame.

In this section, we will continue with the gun polls data we used above:

``` r
url <- "https://raw.githubusercontent.com/fivethirtyeight/data/master/poll-quiz-guns/guns-polls.csv"
gunpolls <- read_csv(url)
gunpolls
```

    ## # A tibble: 57 × 9
    ##    Question     Start   End     Pollster Population Support `Republican Support`
    ##    <chr>        <chr>   <chr>   <chr>    <chr>        <dbl>                <dbl>
    ##  1 age-21       2/20/18 2/23/18 CNN/SSRS Registere…      72                   61
    ##  2 age-21       2/27/18 2/28/18 NPR/Ips… Adults          82                   72
    ##  3 age-21       3/1/18  3/4/18  Rasmuss… Adults          67                   59
    ##  4 age-21       2/22/18 2/26/18 Harris … Registere…      84                   77
    ##  5 age-21       3/3/18  3/5/18  Quinnip… Registere…      78                   63
    ##  6 age-21       3/4/18  3/6/18  YouGov   Registere…      72                   65
    ##  7 age-21       3/1/18  3/5/18  Morning… Registere…      76                   72
    ##  8 arm-teachers 2/23/18 2/25/18 YouGov/… Registere…      41                   69
    ##  9 arm-teachers 2/20/18 2/23/18 CBS News Adults          44                   68
    ## 10 arm-teachers 2/27/18 2/28/18 Rasmuss… Adults          43                   71
    ## # ℹ 47 more rows
    ## # ℹ 2 more variables: `Democratic Support` <dbl>, URL <chr>

### Selecting columns with `select`

This contains a number of columns that we might not be interested in.
Using `select`, we can select only the columns we are interested in:

``` r
select(gunpolls, Population, Support, Pollster)
```

    ## # A tibble: 57 × 3
    ##    Population        Support Pollster          
    ##    <chr>               <dbl> <chr>             
    ##  1 Registered Voters      72 CNN/SSRS          
    ##  2 Adults                 82 NPR/Ipsos         
    ##  3 Adults                 67 Rasmussen         
    ##  4 Registered Voters      84 Harris Interactive
    ##  5 Registered Voters      78 Quinnipiac        
    ##  6 Registered Voters      72 YouGov            
    ##  7 Registered Voters      76 Morning Consult   
    ##  8 Registered Voters      41 YouGov/Huffpost   
    ##  9 Adults                 44 CBS News          
    ## 10 Adults                 43 Rasmussen         
    ## # ℹ 47 more rows

You can also specify a range of columns, for example all columns from
Question to Support:

``` r
select(gunpolls, Question:Support)
```

    ## # A tibble: 57 × 6
    ##    Question     Start   End     Pollster           Population        Support
    ##    <chr>        <chr>   <chr>   <chr>              <chr>               <dbl>
    ##  1 age-21       2/20/18 2/23/18 CNN/SSRS           Registered Voters      72
    ##  2 age-21       2/27/18 2/28/18 NPR/Ipsos          Adults                 82
    ##  3 age-21       3/1/18  3/4/18  Rasmussen          Adults                 67
    ##  4 age-21       2/22/18 2/26/18 Harris Interactive Registered Voters      84
    ##  5 age-21       3/3/18  3/5/18  Quinnipiac         Registered Voters      78
    ##  6 age-21       3/4/18  3/6/18  YouGov             Registered Voters      72
    ##  7 age-21       3/1/18  3/5/18  Morning Consult    Registered Voters      76
    ##  8 arm-teachers 2/23/18 2/25/18 YouGov/Huffpost    Registered Voters      41
    ##  9 arm-teachers 2/20/18 2/23/18 CBS News           Adults                 44
    ## 10 arm-teachers 2/27/18 2/28/18 Rasmussen          Adults                 43
    ## # ℹ 47 more rows

Finally, it is also possible to drop columns by placing a minus sign in
front of the column name. For example, this will drop the URL column and
keep all other columns:

``` r
select(gunpolls, -URL)
```

    ## # A tibble: 57 × 8
    ##    Question     Start   End     Pollster Population Support `Republican Support`
    ##    <chr>        <chr>   <chr>   <chr>    <chr>        <dbl>                <dbl>
    ##  1 age-21       2/20/18 2/23/18 CNN/SSRS Registere…      72                   61
    ##  2 age-21       2/27/18 2/28/18 NPR/Ips… Adults          82                   72
    ##  3 age-21       3/1/18  3/4/18  Rasmuss… Adults          67                   59
    ##  4 age-21       2/22/18 2/26/18 Harris … Registere…      84                   77
    ##  5 age-21       3/3/18  3/5/18  Quinnip… Registere…      78                   63
    ##  6 age-21       3/4/18  3/6/18  YouGov   Registere…      72                   65
    ##  7 age-21       3/1/18  3/5/18  Morning… Registere…      76                   72
    ##  8 arm-teachers 2/23/18 2/25/18 YouGov/… Registere…      41                   69
    ##  9 arm-teachers 2/20/18 2/23/18 CBS News Adults          44                   68
    ## 10 arm-teachers 2/27/18 2/28/18 Rasmuss… Adults          43                   71
    ## # ℹ 47 more rows
    ## # ℹ 1 more variable: `Democratic Support` <dbl>
…
In R, it is easiest if a column name does not contain any spaces or
other special characters. To select such columns, you need to use
‘backticks’ around the name (`` `like this` ``). Because this is
inconvenient, is is often better to rename such columns so they no
longer contain a space. Note that instead of a space, you can use an
underscore (`_`) if desired.

In R, you can use the `rename` function to change the name of one or
more variables:

``` r
rename(gunpolls, rep = `Republican Support`, dem = `Democratic Support`)
```

    ## # A tibble: 57 × 9
    ##    Question     Start   End     Pollster    Population Support   rep   dem URL  
    ##    <chr>        <chr>   <chr>   <chr>       <chr>        <dbl> <dbl> <dbl> <chr>
    ##  1 age-21       2/20/18 2/23/18 CNN/SSRS    Registere…      72    61    86 http…
    ##  2 age-21       2/27/18 2/28/18 NPR/Ipsos   Adults          82    72    92 http…
    ##  3 age-21       3/1/18  3/4/18  Rasmussen   Adults          67    59    76 http…
    ##  4 age-21       2/22/18 2/26/18 Harris Int… Registere…      84    77    92 http…
    ##  5 age-21       3/3/18  3/5/18  Quinnipiac  Registere…      78    63    93 http…
    ##  6 age-21       3/4/18  3/6/18  YouGov      Registere…      72    65    80 http…
    ##  7 age-21       3/1/18  3/5/18  Morning Co… Registere…      76    72    86 http…
    ##  8 arm-teachers 2/23/18 2/25/18 YouGov/Huf… Registere…      41    69    20 http…
    ##  9 arm-teachers 2/20/18 2/23/18 CBS News    Adults          44    68    20 http…
    ## 10 arm-teachers 2/27/18 2/28/18 Rasmussen   Adults          43    71    24 http…
    ## # ℹ 47 more rows

Very often, a first step in data cleaning is renaming some columns and
dropping others. This can be combined in a single step by renaming in
the `select` function:

``` r
select(gunpolls, Question, rep = `Republican Support`, dem = `Democratic Support`)
```

    ## # A tibble: 57 × 3
    ##    Question       rep   dem
    ##    <chr>        <dbl> <dbl>
    ##  1 age-21          61    86
    ##  2 age-21          72    92
    ##  3 age-21          59    76
    ##  4 age-21          77    92
    ##  5 age-21          63    93
    ##  6 age-21          65    80
    ##  7 age-21          72    86
    ##  8 arm-teachers    69    20
    ##  9 arm-teachers    68    20
    ## 10 arm-teachers    71    24
    ## # ℹ 47 more rows
…
To store the results of select or rename (or any other function), you
need to *assign* it to an object and give it a name. This can be a new
name, in which case a *copy* of the object will be made, so both objects
can be used later. After running the code below, both the full
`gunpolls` object (with all columns), and the `gunpolls_clean` object
will be remembered by R, so you can choose to continue analysing either.
This is most useful if you want to do some analyses on the subset of the
data, but also need to do other analyses on a different subset later.

``` r
gunpolls_clean <- select(gunpolls, Question, rep = `Republican Support`, dem = `Democratic Support`)
gunpolls_clean
```

    ## # A tibble: 57 × 3
    ##    Question       rep   dem
    ##    <chr>        <dbl> <dbl>
    ##  1 age-21          61    86
    ##  2 age-21          72    92
    ##  3 age-21          59    76
    ##  4 age-21          77    92
    ##  5 age-21          63    93
    ##  6 age-21          65    80
    ##  7 age-21          72    86
    ##  8 arm-teachers    69    20
    ##  9 arm-teachers    68    20
    ## 10 arm-teachers    71    24
    ## # ℹ 47 more rows

If you assign it to the same name, it will overwrite the data:

``` r
gunpolls <- select(gunpolls, Question, rep = `Republican Support`, dem = `Democratic Support`)
gunpolls
```

    ## # A tibble: 57 × 3
    ##    Question       rep   dem
    ##    <chr>        <dbl> <dbl>
    ##  1 age-21          61    86
    ##  2 age-21          72    92
    ##  3 age-21          59    76
    ##  4 age-21          77    92
    ##  5 age-21          63    93
    ##  6 age-21          65    80
    ##  7 age-21          72    86
    ##  8 arm-teachers    69    20
    ##  9 arm-teachers    68    20
    ## 10 arm-teachers    71    24
    ## # ℹ 47 more rows
…
## Subsetting (filtering) data

In the previous section we looked at selecting columns with the `select`
function. Another common task is selecting *rows*, which can be done
with the `filter` function.

This section also uses the gun polls data we used above:

``` r
url <- "https://raw.githubusercontent.com/fivethirtyeight/data/master/poll-quiz-guns/guns-polls.csv"
gunpolls <- read_csv(url)
gunpolls
```

    ## # A tibble: 57 × 9
    ##    Question     Start   End     Pollster Population Support `Republican Support`
    ##    <chr>        <chr>   <chr>   <chr>    <chr>        <dbl>                <dbl>
    ##  1 age-21       2/20/18 2/23/18 CNN/SSRS Registere…      72                   61
    ##  2 age-21       2/27/18 2/28/18 NPR/Ips… Adults          82                   72
    ##  3 age-21       3/1/18  3/4/18  Rasmuss… Adults          67                   59
    ##  4 age-21       2/22/18 2/26/18 Harris … Registere…      84                   77
    ##  5 age-21       3/3/18  3/5/18  Quinnip… Registere…      78                   63
    ##  6 age-21       3/4/18  3/6/18  YouGov   Registere…      72                   65
    ##  7 age-21       3/1/18  3/5/18  Morning… Registere…      76                   72
    ##  8 arm-teachers 2/23/18 2/25/18 YouGov/… Registere…      41                   69
    ##  9 arm-teachers 2/20/18 2/23/18 CBS News Adults          44                   68
    ## 10 arm-teachers 2/27/18 2/28/18 Rasmuss… Adults          43                   71
    ## # ℹ 47 more rows
    ## # ℹ 2 more variables: `Democratic Support` <dbl>, URL <chr>
…
``` r
url <- "https://raw.githubusercontent.com/fivethirtyeight/data/master/poll-quiz-guns/guns-polls.csv"
gunpolls <- read_csv(url)
gunpolls <- select(gunpolls, Question, Support, 
                   rep=`Republican Support`, dem=`Democratic Support`)
```

For example, to transform the Support percentage (0-100) to a proportion
(0-1), we can divide the column by 100 using `mutate`:

``` r
mutate(gunpolls, Support_Prop = Support / 100)
```

    ## # A tibble: 57 × 5
    ##    Question     Support   rep   dem Support_Prop
    ##    <chr>          <dbl> <dbl> <dbl>        <dbl>
    ##  1 age-21            72    61    86         0.72
    ##  2 age-21            82    72    92         0.82
    ##  3 age-21            67    59    76         0.67
    ##  4 age-21            84    77    92         0.84
    ##  5 age-21            78    63    93         0.78
    ##  6 age-21            72    65    80         0.72
    ##  7 age-21            76    72    86         0.76
    ##  8 arm-teachers      41    69    20         0.41
    ##  9 arm-teachers      44    68    20         0.44
    ## 10 arm-teachers      43    71    24         0.43
    ## # ℹ 47 more rows
…
