…
``` r
words <- c("party", "election", "ballot", "parliament", "government",
           "minister", "candidate", "campaign", "coalition", "opposition",
           "conservative", "labour", "liberal", "republican", "democrat",
           "birthday", "celebration", "dance", "music",
           "drinks", "friends", "fun", "cake", "gifts",
           "invite", "crowd", "club", "loud", "festival")
embeddings <- ft_word_vectors(model, words) |>
  as_tibble(rownames = "word")
embeddings
```

    # A tibble: 29 × 301
       word          V1       V2       V3       V4       V5       V6     V7       V8
       <chr>      <dbl>    <dbl>    <dbl>    <dbl>    <dbl>    <dbl>  <dbl>    <dbl>
     1 party   -9.45e-6  0.0356  -0.0394   0.0567  -0.0403   0.133   0.122  -0.0648 
     2 electi… -7.56e-2  0.0319   0.0717   0.0223  -0.0961   0.0330  0.0377 -0.00884
     3 ballot  -2.00e-1  0.0723   0.0522   0.0648  -0.128    0.0463  0.0988 -0.0544 
     4 parlia… -2.36e-2  0.00642 -0.00136  0.0149  -0.00287 -0.00658 0.0308  0.0321 
     5 govern… -6.30e-2 -0.00161  0.0489   0.00417 -0.0461   0.0278  0.0696  0.00870
     6 minist… -6.98e-3 -0.0136  -0.0180  -0.00469 -0.0263  -0.00440 0.0305  0.0175 
     7 candid… -2.11e-2  0.00985  0.00418  0.0206  -0.0905   0.0297  0.0266 -0.0391 
     8 campai… -4.13e-2 -0.0108   0.0672   0.0271  -0.0259   0.0981  0.0293 -0.0386 
     9 coalit… -6.62e-2 -0.0414   0.00448  0.00640 -0.0165  -0.0237  0.0564 -0.0130 
    10 opposi… -3.07e-2  0.00816 -0.00406  0.0138  -0.0396  -0.0265  0.0416 -0.0218 
    # ℹ 19 more rows
    # ℹ 292 more variables: V9 <dbl>, V10 <dbl>, V11 <dbl>, V12 <dbl>, V13 <dbl>,
    #   V14 <dbl>, V15 <dbl>, V16 <dbl>, V17 <dbl>, V18 <dbl>, V19 <dbl>,
    #   V20 <dbl>, V21 <dbl>, V22 <dbl>, V23 <dbl>, V24 <dbl>, V25 <dbl>,
    #   V26 <dbl>, V27 <dbl>, V28 <dbl>, V29 <dbl>, V30 <dbl>, V31 <dbl>,
    #   V32 <dbl>, V33 <dbl>, V34 <dbl>, V35 <dbl>, V36 <dbl>, V37 <dbl>,
    #   V38 <dbl>, V39 <dbl>, V40 <dbl>, V41 <dbl>, V42 <dbl>, V43 <dbl>, …
…
